{
  "page": 1,
  "total_results": 10000,
  "total_pages": 500,
  "results": [
    {
      "popularity": 168.221,
      "vote_count": 3860,
      "video": false,
      "poster_path": "/xBHvZcjRiWyobQ9kxBhO6B2dtRI.jpg",
      "id": 419704,
      "adult": false,
      "backdrop_path": "/t4z8OlOEzH7J1JRFUN3rcm6XHNL.jpg",
      "original_language": "en",
      "original_title": "Ad Astra",
      "genre_ids": [
        18,
        878
      ],
      "title": "Ad Astra",
      "vote_average": 6.1,
      "overview": "The near future, a time when both hope and hardships drive humanity to look to the stars and beyond. While a mysterious phenomenon menaces to destroy life on planet Earth, astronaut Roy McBride undertakes a mission across the immensity of space and its many perils to uncover the truth about a lost expedition that decades before boldly faced emptiness and silence in search of the unknown.",
      "release_date": "2019-09-17"
    },
    {
      "popularity": 197.612,
      "vote_count": 104,
      "video": false,
      "poster_path": "/h1B7tW0t399VDjAcWJh8m87469b.jpg",
      "id": 556574,
      "adult": false,
      "backdrop_path": "/uWVkEo9PWHu9algZsiLPi6sRU64.jpg",
      "original_language": "en",
      "original_title": "Hamilton",
      "genre_ids": [
        18,
        36
      ],
      "title": "Hamilton",
      "vote_average": 8.7,
      "overview": "Presenting the tale of American founding father Alexander Hamilton, this filmed version of the original Broadway smash hit is the story of America then, told by America now.",
      "release_date": "2020-07-03"
    },
    {
      "popularity": 238.448,
      "vote_count": 1835,
      "video": false,
      "poster_path": "/s1cVTQEZYn4nSjZLnFbzLP0j8y2.jpg",
      "id": 8619,
      "adult": false,
      "backdrop_path": "/m11Mej9vbQqcXWgYrgPboCJ9NUh.jpg",
      "original_language": "en",
      "original_title": "Master and Commander: The Far Side of the World",
      "genre_ids": [
        12,
        18,
        10752
      ],
      "title": "Master and Commander: The Far Side of the World",
      "vote_average": 7.1,
      "overview": "After an abrupt and violent encounter with a French warship inflicts severe damage upon his ship, a captain of the British Royal Navy begins a chase over two oceans to capture or destroy the enemy, though he must weigh his commitment to duty and ferocious pursuit of glory against the safety of his devoted crew, including the ship's thoughtful surgeon, his best friend.",
      "release_date": "2003-11-14"
    },
    {
      "popularity": 101.014,
      "vote_count": 2671,
      "video": false,
      "poster_path": "/hLZHJjsZ83Wfn3MRteNb6ew0WC7.jpg",
      "id": 72545,
      "adult": false,
      "backdrop_path": "/9f33P2UvXw8HnLNB3cHdzI64Xpq.jpg",
      "original_language": "en",
      "original_title": "Journey 2: The Mysterious Island",
      "genre_ids": [
        28,
        12,
        878
      ],
      "title": "Journey 2: The Mysterious Island",
      "vote_average": 6,
      "overview": "Sean Anderson partners with his mom's boyfriend on a mission to find his grandfather, who is thought to be missing on a mythical island.",
      "release_date": "2012-01-19"
    },
    {
      "popularity": 147.062,
      "vote_count": 21,
      "video": false,
      "poster_path": "/goEW6QqoFxNI2pfbpVqmXj2WXwd.jpg",
      "id": 531876,
      "adult": false,
      "backdrop_path": "/n1RohH2VoK1CdVI2fXvcP19dSlm.jpg",
      "original_language": "en",
      "original_title": "The Outpost",
      "genre_ids": [
        28,
        18,
        36,
        10752
      ],
      "title": "The Outpost",
      "vote_average": 5.4,
      "overview": "A small unit of U.S. soldiers, alone at the remote Combat Outpost Keating, located deep in the valley of three mountains in Afghanistan, battles to defend against an overwhelming force of Taliban fighters in a coordinated attack. The Battle of Kamdesh, as it was known, was the bloodiest American engagement of the Afghan War in 2009 and Bravo Troop 3-61 CAV became one of the most decorated units of the 19-year conflict.",
      "release_date": "2020-06-24"
    },
    {
      "popularity": 97.816,
      "vote_count": 296,
      "video": false,
      "poster_path": "/9zrbgYyFvwH8sy5mv9eT25xsAzL.jpg",
      "id": 531454,
      "adult": false,
      "backdrop_path": "/jMO1icztaUUEUApdAQx0cZOt7b8.jpg",
      "original_language": "en",
      "original_title": "Eurovision Song Contest: The Story of Fire Saga",
      "genre_ids": [
        35,
        10402
      ],
      "title": "Eurovision Song Contest: The Story of Fire Saga",
      "vote_average": 6.5,
      "overview": "Two small-town aspiring musicians chase their pop star dreams at a global music competition, where high stakes, scheming rivals and onstage mishaps test their bond.",
      "release_date": "2020-06-26"
    },
    {
      "popularity": 63.02,
      "vote_count": 2079,
      "video": false,
      "poster_path": "/s3uFIwMYiSmsYGj2wfFGCdogOLE.jpg",
      "id": 6795,
      "adult": false,
      "backdrop_path": "/2DKpjWI0j6eRhF3lPUE4lc7wqP0.jpg",
      "original_language": "en",
      "original_title": "Zathura: A Space Adventure",
      "genre_ids": [
        12,
        35,
        14,
        878,
        10751
      ],
      "title": "Zathura: A Space Adventure",
      "vote_average": 6.3,
      "overview": "After their father is called into work, two young boys, Walter and Danny, are left in the care of their teenage sister, Lisa, and told they must stay inside. Walter and Danny, who anticipate a boring day, are shocked when they begin playing Zathura, a space-themed board game, which they realize has mystical powers when their house is shot into space. With the help of an astronaut, the boys attempt to return home.",
      "release_date": "2005-11-06"
    },
    {
      "popularity": 146.433,
      "vote_count": 90,
      "video": false,
      "poster_path": "/hoUzSMxGu4Bm73EvH6B3iceFwW8.jpg",
      "id": 706510,
      "adult": false,
      "backdrop_path": "/k8H6Qp4uJ9WHArPQwDqCaW9g3Sj.jpg",
      "original_language": "en",
      "original_title": "Desperados",
      "genre_ids": [
        35,
        10749
      ],
      "title": "Desperados",
      "vote_average": 6.7,
      "overview": "A panicked young woman and her two best friends fly to Mexico to delete a ranting email she sent to her new boyfriend. On arrival, they run into her former beau, who soon gets caught up in their frantic scheme.",
      "release_date": "2020-07-03"
    },
    {
      "popularity": 84.48,
      "vote_count": 567,
      "video": false,
      "poster_path": "/tI8ocADh22GtQFV28vGHaBZVb0U.jpg",
      "id": 475430,
      "adult": false,
      "backdrop_path": "/o0F8xAt8YuEm5mEZviX5pEFC12y.jpg",
      "original_language": "en",
      "original_title": "Artemis Fowl",
      "genre_ids": [
        12,
        14,
        878,
        10751
      ],
      "title": "Artemis Fowl",
      "vote_average": 5.9,
      "overview": "Artemis Fowl is a 12-year-old genius and descendant of a long line of criminal masterminds. He soon finds himself in an epic battle against a race of powerful underground fairies who may be behind his father's disappearance.",
      "release_date": "2020-06-12"
    },
    {
      "popularity": 91.592,
      "vote_count": 13580,
      "video": false,
      "poster_path": "/udDclJoHjfjb8Ekgsd4FDteOkCU.jpg",
      "id": 475557,
      "adult": false,
      "backdrop_path": "/n6bUvigpRFqSwmPp1m2YADdbRBc.jpg",
      "original_language": "en",
      "original_title": "Joker",
      "genre_ids": [
        80,
        18,
        53
      ],
      "title": "Joker",
      "vote_average": 8.2,
      "overview": "During the 1980s, a failed stand-up comedian is driven insane and turns to a life of crime and chaos in Gotham City while becoming an infamous psychopathic crime figure.",
      "release_date": "2019-10-02"
    },
    {
      "popularity": 85.836,
      "vote_count": 4955,
      "video": false,
      "poster_path": "/aQvJ5WPzZgYVDrxLX4R6cLJCEaQ.jpg",
      "id": 454626,
      "adult": false,
      "backdrop_path": "/stmYfCUGd8Iy6kAMBr6AmWqx8Bq.jpg",
      "original_language": "en",
      "original_title": "Sonic the Hedgehog",
      "genre_ids": [
        28,
        35,
        878,
        10751
      ],
      "title": "Sonic the Hedgehog",
      "vote_average": 7.5,
      "overview": "Based on the global blockbuster videogame franchise from Sega, Sonic the Hedgehog tells the story of the world’s speediest hedgehog as he embraces his new home on Earth. In this live-action adventure comedy, Sonic and his new best friend team up to defend the planet from the evil genius Dr. Robotnik and his plans for world domination.",
      "release_date": "2020-02-12"
    },
    {
      "popularity": 68.801,
      "vote_count": 2336,
      "video": false,
      "poster_path": "/5EufsDwXdY2CVttYOk2WtYhgKpa.jpg",
      "id": 570670,
      "adult": false,
      "backdrop_path": "/uZMZyvarQuXLRqf3xdpdMqzdtjb.jpg",
      "original_language": "en",
      "original_title": "The Invisible Man",
      "genre_ids": [
        27,
        878,
        53
      ],
      "title": "The Invisible Man",
      "vote_average": 7.2,
      "overview": "When Cecilia's abusive ex takes his own life and leaves her his fortune, she suspects his death was a hoax. As a series of coincidences turn lethal, Cecilia works to prove that she is being hunted by someone nobody can see.",
      "release_date": "2020-02-26"
    },
    {
      "popularity": 80.941,
      "vote_count": 4847,
      "video": false,
      "poster_path": "/h4VB6m0RwcicVEZvzftYZyKXs6K.jpg",
      "id": 495764,
      "adult": false,
      "backdrop_path": "/9xNOiv6DZZjH7ABoUUDP0ZynouU.jpg",
      "original_language": "en",
      "original_title": "Birds of Prey (and the Fantabulous Emancipation of One Harley Quinn)",
      "genre_ids": [
        28,
        35,
        80,
        18
      ],
      "title": "Birds of Prey (and the Fantabulous Emancipation of One Harley Quinn)",
      "vote_average": 7.2,
      "overview": "Harley Quinn joins forces with a singer, an assassin and a police detective to help a young girl who had a hit placed on her after she stole a rare diamond from a crime lord.",
      "release_date": "2020-02-05"
    },
    {
      "popularity": 73.436,
      "vote_count": 8256,
      "video": false,
      "poster_path": "/7IiTTgloJzvGI1TAYymCfbfl3vT.jpg",
      "id": 496243,
      "adult": false,
      "backdrop_path": "/ApiBzeaa95TNYliSbQ8pJv4Fje7.jpg",
      "original_language": "ko",
      "original_title": "기생충",
      "genre_ids": [
        35,
        18,
        53
      ],
      "title": "Parasite",
      "vote_average": 8.5,
      "overview": "All unemployed, Ki-taek's family takes peculiar interest in the wealthy and glamorous Parks for their livelihood until they get entangled in an unexpected incident.",
      "release_date": "2019-05-30"
    },
    {
      "popularity": 59.712,
      "vote_count": 50,
      "video": false,
      "poster_path": "/ucktgbaMSaETUDLUBp1ubGD6aNj.jpg",
      "id": 619592,
      "adult": false,
      "backdrop_path": "/eIqyISB5j99OSRZUuvdN9g2bBsS.jpg",
      "original_language": "en",
      "original_title": "Force of Nature",
      "genre_ids": [
        28,
        18
      ],
      "title": "Force of Nature",
      "vote_average": 5.4,
      "overview": "A gang of thieves plan a heist during a hurricane and encounter trouble when a disgraced cop tries to force everyone in the building to evacuate.",
      "release_date": "2020-07-02"
    },
    {
      "popularity": 77.594,
      "vote_count": 18792,
      "video": false,
      "poster_path": "/7WsyChQLEftFiDOVTGkv3hFpyyt.jpg",
      "id": 299536,
      "adult": false,
      "backdrop_path": "/lmZFxXgJE3vgrciwuDib0N8CfQo.jpg",
      "original_language": "en",
      "original_title": "Avengers: Infinity War",
      "genre_ids": [
        28,
        12,
        878
      ],
      "title": "Avengers: Infinity War",
      "vote_average": 8.3,
      "overview": "As the Avengers and their allies have continued to protect the world from threats too large for any one hero to handle, a new danger has emerged from the cosmic shadows: Thanos. A despot of intergalactic infamy, his goal is to collect all six Infinity Stones, artifacts of unimaginable power, and use them to inflict his twisted will on all of reality. Everything the Avengers have fought for has led up to this moment - the fate of Earth and existence itself has never been more uncertain.",
      "release_date": "2018-04-25"
    },
    {
      "popularity": 49.247,
      "vote_count": 142,
      "video": false,
      "poster_path": "/m3Vuuf6CcVrJbY94lBUEZ0SrpTS.jpg",
      "id": 694234,
      "adult": false,
      "backdrop_path": "/aVtQ8vo9yyS0MoQN3zzEVmUCIWM.jpg",
      "original_language": "it",
      "original_title": "Sotto il sole di Riccione",
      "genre_ids": [
        35,
        10749
      ],
      "title": "Under the Riccione Sun",
      "vote_average": 6.5,
      "overview": "While vacationing on the crowded beaches of Riccione, a group of teenagers becomes fast friends as they grapple with relationship issues and romance.",
      "release_date": "2020-07-01"
    },
    {
      "popularity": 69.121,
      "vote_count": 17367,
      "video": false,
      "poster_path": "/wuMc08IPKEatf9rnMNXvIDxqP4W.jpg",
      "id": 671,
      "adult": false,
      "backdrop_path": "/hziiv14OpD73u9gAak4XDDfBKa2.jpg",
      "original_language": "en",
      "original_title": "Harry Potter and the Philosopher's Stone",
      "genre_ids": [
        12,
        14,
        10751
      ],
      "title": "Harry Potter and the Philosopher's Stone",
      "vote_average": 7.9,
      "overview": "Harry Potter has lived under the stairs at his aunt and uncle's house his whole life. But on his 11th birthday, he learns he's a powerful wizard -- with a place waiting for him at the Hogwarts School of Witchcraft and Wizardry. As he learns to harness his newfound powers with the help of the school's kindly headmaster, Harry uncovers the truth about his parents' deaths -- and about the villain who's to blame.",
      "release_date": "2001-11-16"
    },
    {
      "popularity": 70.196,
      "vote_count": 5255,
      "video": false,
      "poster_path": "/pjeMs3yqRmFL3giJy4PMXWZTTPa.jpg",
      "id": 330457,
      "adult": false,
      "backdrop_path": "/xJWPZIYOEFIjZpBL7SVBGnzRYXp.jpg",
      "original_language": "en",
      "original_title": "Frozen II",
      "genre_ids": [
        12,
        16,
        10751
      ],
      "title": "Frozen II",
      "vote_average": 7.3,
      "overview": "Elsa, Anna, Kristoff and Olaf head far into the forest to learn the truth about an ancient mystery of their kingdom.",
      "release_date": "2019-11-20"
    },
    {
      "popularity": 61.95,
      "vote_count": 201,
      "video": false,
      "poster_path": "/suORidtGKPO6tWwNqiwGvNo85z3.jpg",
      "id": 565743,
      "adult": false,
      "backdrop_path": "/lVSMgZUBE4XTVaPBEBAczre4f1W.jpg",
      "original_language": "en",
      "original_title": "The Vast of Night",
      "genre_ids": [
        18,
        9648,
        878
      ],
      "title": "The Vast of Night",
      "vote_average": 6.5,
      "overview": "At the dawn of the space-race, two radio-obsessed teens discover a strange frequency over the airwaves in what becomes the most important night of their lives and in the history of their small town.",
      "release_date": "2020-05-15"
    }
  ]
}